<?xml version="1.0" encoding="utf-8"?>
<!-- Generator: Adobe Illustrator 22.0.1, SVG Export Plug-In . SVG Version: 6.00 Build 0)  -->
<svg version="1.1" id="Layer_1" xmlns="http://www.w3.org/2000/svg" xmlns:xlink="http://www.w3.org/1999/xlink" x="0px" y="0px"
	 viewBox="0 0 789.3 643.5" style="enable-background:new 0 0 789.3 643.5;" xml:space="preserve">
<style type="text/css">
	.st0{fill:none;stroke:#000000;stroke-width:21.2598;}
	.st1{enable-background:new    ;}
</style>
<path class="st0" d="M216.2,433.5v84.1L10.8,626.1v-609l205.4,108.4v70"/>
<g class="st1">
	<path d="M105.3,216.2c0,6.7-5.1,11.7-12.2,11.7c-7.1,0-12.1-5-12.1-11.7c0-6.4,5-11.9,12.1-11.9
		C100.2,204.3,105.3,209.8,105.3,216.2z M82.6,301.5v-65.9h21v65.9H82.6z"/>
	<path d="M186.6,261.1v40.4h-20.9v-36c0-7.7-4.6-13-11.3-13c-8.3,0-13.6,5.6-13.6,18.4v30.6h-21v-65.9h21v6.3
		c5-5.2,11.9-8.3,20.2-8.3C176.4,233.7,186.6,244.6,186.6,261.1z"/>
	<path d="M249.8,298.6c-5.1,2.8-10.5,4.9-18,4.9c-16.4,0-26.2-8.9-26.2-26.2v-24.9h-11.9v-16.7h11.9v-19.4h21v19.4H246v16.7h-19.4
		v22.8c0,6.8,3.3,9.6,8.8,9.6c2.9,0,6.8-1,9.6-2.6L249.8,298.6z"/>
	<path d="M321,274h-48.3c1.7,7.9,7.1,12.7,14.2,12.7c4.9,0,10.5-1.2,14-7.6l18.6,3.8c-5.6,13.9-17.6,20.6-32.7,20.6
		c-19,0-34.8-14-34.8-34.9c0-20.7,15.7-34.9,34.9-34.9c18.6,0,33.6,13.4,34,34.9V274z M273.1,261.1h27.2c-2-7.1-7.2-10.4-13.3-10.4
		C281.1,250.7,275.1,254.4,273.1,261.1z"/>
	<path d="M380.3,235.2l-0.9,21h-3.8c-14.7,0-22.7,7.6-22.7,24.7v20.6h-21v-65.9h21v12.6c4.7-7.9,11.9-13.5,22.7-13.5
		C377.4,234.7,378.8,234.8,380.3,235.2z"/>
	<path d="M458.2,301.5h-21v-5.2c-5.1,4.6-11.9,7.2-20.5,7.2c-17.5,0-32.1-14-32.1-34.9c0-20.7,14.7-34.9,32.1-34.9
		c8.5,0,15.4,2.6,20.5,7.2v-5.2h21V301.5z M437.2,268.6c0-10.1-7.6-17.1-16.1-17.1c-9.2,0-15.9,7-15.9,17.1
		c0,10.2,6.7,17.1,15.9,17.1C429.5,285.6,437.2,278.8,437.2,268.6z"/>
	<path d="M519.3,273.6l19.3,4.2c-3.3,15.6-17.2,25.7-33.6,25.7c-19.7,0-36-14-36-34.9c0-20.7,16.3-34.9,36-34.9
		c16,0,29.9,9.8,33.6,25.3l-19.7,4.7c-1.8-8-7.2-11.7-13.9-11.7c-9.4,0-15.7,7-15.7,16.5c0,9.7,6.3,16.5,15.7,16.5
		C511.7,285.1,517.1,281.6,519.3,273.6z"/>
	<path d="M598.3,298.6c-5.1,2.8-10.5,4.9-18,4.9c-16.4,0-26.2-8.9-26.2-26.2v-24.9h-11.9v-16.7h11.9v-19.4h21v19.4h19.4v16.7h-19.4
		v22.8c0,6.8,3.3,9.6,8.8,9.6c2.9,0,6.8-1,9.6-2.6L598.3,298.6z"/>
	<path d="M630.1,216.2c0,6.7-5.1,11.7-12.2,11.7s-12.1-5-12.1-11.7c0-6.4,5-11.9,12.1-11.9S630.1,209.8,630.1,216.2z M607.4,301.5
		v-65.9h21v65.9H607.4z"/>
	<path d="M686.6,301.5h-21.4l-27.3-66h22.2l15.9,40.7l15.7-40.7h22.2L686.6,301.5z"/>
	<path d="M784.6,274h-48.3c1.7,7.9,7.1,12.7,14.2,12.7c4.9,0,10.5-1.2,14-7.6l18.6,3.8c-5.6,13.9-17.6,20.6-32.7,20.6
		c-19,0-34.8-14-34.8-34.9c0-20.7,15.7-34.9,34.9-34.9c18.6,0,33.6,13.4,34,34.9V274z M736.7,261.1h27.2c-2-7.1-7.2-10.4-13.3-10.4
		C744.8,250.7,738.7,254.4,736.7,261.1z"/>
</g>
<g class="st1">
	<path d="M114.5,349l-21.2,4.3C91.8,345.1,85,341,78,341c-7.2,0-11.8,3.9-11.8,8.9c0,3.5,1.6,6.2,7.1,7.3l18.2,4.1
		c15.2,3.4,24.1,11.7,24.1,25.6c0,18.8-16.6,28.5-36.1,28.5c-19.8,0-36-9.4-38.4-26.6l22.3-4.3c2.2,9.1,8.5,13,17.3,13
		c8.1,0,13-3.7,13-9.1c0-3.9-1.8-6.4-8.1-7.7l-18.3-3.9c-12.6-2.9-23.6-9.4-23.6-25.5c0-17.1,14.1-27.7,34.7-27.7
		C97.4,323.6,111.3,333,114.5,349z"/>
	<path d="M174.2,385.5l19.2,4.2c-3.3,15.6-17.2,25.7-33.5,25.7c-19.6,0-35.9-14-35.9-34.9c0-20.7,16.2-34.9,35.9-34.9
		c16,0,29.9,9.8,33.5,25.3l-19.6,4.7c-1.8-8-7.2-11.7-13.9-11.7c-9.4,0-15.7,7-15.7,16.5c0,9.7,6.3,16.5,15.7,16.5
		C166.7,397,172,393.5,174.2,385.5z"/>
	<path d="M228,328.2c0,6.7-5.1,11.7-12.2,11.7c-7.1,0-12-5-12-11.7c0-6.4,5-11.9,12-11.9C222.9,316.2,228,321.7,228,328.2z
		 M205.4,413.4v-65.9h20.9v65.9H205.4z"/>
	<path d="M307,385.9h-48.2c1.7,7.9,7.1,12.7,14.1,12.7c4.8,0,10.5-1.2,14-7.6l18.6,3.8c-5.6,13.9-17.5,20.6-32.6,20.6
		c-19,0-34.7-14-34.7-34.9c0-20.7,15.7-34.9,34.8-34.9c18.6,0,33.5,13.4,33.9,34.9V385.9z M259.2,373h27.1
		c-2-7.1-7.2-10.4-13.2-10.4C267.2,362.7,261.2,366.3,259.2,373z"/>
	<path d="M384.5,373v40.4h-20.8v-36c0-7.7-4.6-13-11.3-13c-8.2,0-13.6,5.6-13.6,18.4v30.6h-20.9v-65.9h20.9v6.3
		c5-5.2,11.9-8.3,20.2-8.3C374.3,345.6,384.5,356.5,384.5,373z"/>
	<path d="M447.5,410.6c-5.1,2.8-10.5,4.9-17.9,4.9c-16.4,0-26.2-8.9-26.2-26.2v-24.9h-11.9v-16.7h11.9v-19.4h20.9v19.4h19.4v16.7
		h-19.4v22.8c0,6.8,3.3,9.6,8.8,9.6c2.9,0,6.8-1,9.6-2.6L447.5,410.6z"/>
	<path d="M479.1,328.2c0,6.7-5.1,11.7-12.2,11.7s-12-5-12-11.7c0-6.4,5-11.9,12-11.9S479.1,321.7,479.1,328.2z M456.5,413.4v-65.9
		h20.9v65.9H456.5z"/>
	<path d="M563.3,413.4h-20.9v-49.2h-24.1v49.2h-20.8v-49.2H488v-16.7h9.4v-5.1c0-15.5,10.6-25.3,26.7-25.3c4.1,0,8.1,0.8,11.9,2.2
		l-3.8,16.5c-1.8-0.4-3.7-0.8-5.2-0.8c-5.2,0-8.8,3-8.8,8.3v4.2h45V413.4z M540.7,328.2c0-6.4,5-11.9,12.2-11.9
		c6.9,0,12,5.5,12,11.9c0,6.7-5.1,11.7-12,11.7C545.6,339.8,540.7,334.8,540.7,328.2z"/>
	<path d="M625.4,385.5l19.2,4.2c-3.3,15.6-17.2,25.7-33.5,25.7c-19.6,0-35.9-14-35.9-34.9c0-20.7,16.2-34.9,35.9-34.9
		c16,0,29.9,9.8,33.5,25.3l-19.6,4.7c-1.8-8-7.2-11.7-13.9-11.7c-9.4,0-15.7,7-15.7,16.5c0,9.7,6.3,16.5,15.7,16.5
		C617.8,397,623.1,393.5,625.4,385.5z"/>
</g>
</svg>
