<?xml version="1.0" encoding="utf-8"?>
<!-- Generator: Adobe Illustrator 22.1.0, SVG Export Plug-In . SVG Version: 6.00 Build 0)  -->
<svg version="1.1" xmlns="http://www.w3.org/2000/svg" xmlns:xlink="http://www.w3.org/1999/xlink" x="0px" y="0px"
	 viewBox="0 0 501.5 106" style="enable-background:new 0 0 501.5 106;" xml:space="preserve">
<style type="text/css">
	.st0{display:none;}
	.st1{display:inline;}
	.st2{fill:#13110C;}
</style>
<g id="Layer_1">
</g>
<g id="Layer_4">
	<g>
		<g>
			<g>
				<path d="M138.4,77h-6l-26.7-31.7V77h-7.1V32.8h6L131.3,65V32.8h7.1V77z"/>
			</g>
			<g>
				<path d="M180.8,77H174v-3.8c-2.8,3-6.9,4.7-11.9,4.7c-8.6,0-16.2-6.9-16.2-17.3c0-10.3,7.7-17.3,16.2-17.3c4.9,0,9,1.7,11.9,4.7
					v-3.8h6.9V77z M174,60.6c0-6.9-5.3-11.2-10.8-11.2c-6,0-10.7,4.4-10.7,11.2c0,6.9,4.7,11.2,10.7,11.2
					C168.6,71.8,174,67.5,174,60.6z"/>
			</g>
			<g>
				<path d="M220,57.2V77H213V58.6c0-5.3-3.1-8.9-7.8-8.9c-5.9,0-9.8,4-9.8,12.2V77h-6.9V44.2h6.9v4c2.6-3.2,6.5-4.9,11.4-4.9
					C214.7,43.3,220,49,220,57.2z"/>
			</g>
			<g>
				<path d="M260.5,60.6c0,10.2-7.9,17.2-17.5,17.2c-9.7,0-17.6-7-17.6-17.2s7.9-17.1,17.6-17.1C252.6,43.5,260.5,50.4,260.5,60.6z
					 M253.8,60.6c0-6.8-5.2-11.2-10.8-11.2c-5.7,0-10.9,4.4-10.9,11.2s5.1,11.2,10.9,11.2C248.6,71.8,253.8,67.4,253.8,60.6z"/>
			</g>
			<g>
				<path d="M302.4,44.6l-10.7,2.2c-0.8-4.2-4.2-6.2-7.7-6.2c-3.6,0-5.9,2-5.9,4.5c0,1.8,0.8,3.1,3.6,3.7l9.2,2
					c7.7,1.7,12.1,5.9,12.1,12.9c0,9.4-8.4,14.3-18.2,14.3c-10,0-18.1-4.8-19.3-13.4l11.2-2.2c1.1,4.6,4.3,6.5,8.7,6.5
					c4.1,0,6.5-1.8,6.5-4.6c0-2-0.9-3.2-4.1-3.9l-9.2-2c-6.3-1.5-11.9-4.8-11.9-12.8c0-8.6,7.1-13.9,17.5-13.9
					C293.8,31.8,300.8,36.5,302.4,44.6z"/>
			</g>
			<g>
				<path d="M320,34.1c0,3.4-2.6,5.9-6.1,5.9c-3.6,0-6.1-2.5-6.1-5.9c0-3.2,2.5-6,6.1-6C317.5,28.1,320,30.8,320,34.1z M308.6,77
					V43.8h10.6V77H308.6z"/>
			</g>
			<g>
				<path d="M381.6,56.3V77h-10.5V58.5c0-3.8-2.4-6.1-5.5-6.1c-3.9,0-6.5,2.8-6.5,8.4V77h-10.6V58.5c0-3.8-2.4-6.1-5.6-6.1
					c-3.8,0-6.3,2.8-6.3,8.4V77H326V43.8h10.6v3c2.2-2.5,5.5-4,9.8-4c4.6,0,8.6,2,10.8,5.6c2.6-3.4,6.6-5.6,11.7-5.6
					C376,42.9,381.6,48.2,381.6,56.3z"/>
			</g>
			<g>
				<path d="M424.5,60.4c0,10.5-7.4,17.6-16.2,17.6c-4.3,0-7.7-1.3-10.3-3.6V77h-10.6V29.5H398v17c2.6-2.3,6-3.6,10.3-3.6
					C417.1,42.9,424.5,50,424.5,60.4z M414.1,60.4c0-5.1-3.4-8.6-8-8.6c-4.3,0-8.1,3.5-8.1,8.6c0,5.1,3.8,8.6,8.1,8.6
					C410.8,69,414.1,65.6,414.1,60.4z"/>
			</g>
			<g>
				<path d="M464.3,60.4c0,10.5-8.3,17.5-18.1,17.5c-10,0-18.3-7-18.3-17.5c0-10.4,8.3-17.4,18.3-17.4C456,43,464.3,50,464.3,60.4z
					 M454.1,60.4c0-5.1-3.9-8.6-8-8.6c-4.3,0-8.2,3.4-8.2,8.6c0,5.2,3.9,8.6,8.2,8.6C450.2,69,454.1,65.6,454.1,60.4z"/>
			</g>
			<g>
				<path d="M501.5,77h-12.1l-6.3-9.6l-6.4,9.6h-12.1l10.9-16l-10.9-17.2h12.1l6.4,10.3l6.3-10.3h12.1l-11,17.2L501.5,77z"/>
			</g>
		</g>
		<g>
			<path d="M42.3,0l-2,2L1.1,41.1L0,42.3l7.4,28.9L42.3,106l34.9-34.9l7.4-28.9L42.3,0z M42.3,78.3L23.9,59.8l18.4-18.4l18.4,18.4
				L42.3,78.3z M45.1,36.3V10.9l32.3,32.3L64.7,55.8L45.1,36.3z M39.4,36.3L19.9,55.8L7.2,43.1l32.3-32.3V36.3z M15.9,59.8l-4.4,4.4
				l-3-11.8L15.9,59.8z M19.9,63.9l19.6,19.6v11.8L14,69.7L19.9,63.9z M45.1,83.4l19.6-19.6l5.9,5.9L45.1,95.2V83.4z M68.7,59.8
				l7.4-7.4l-3,11.8L68.7,59.8z"/>
			<ellipse transform="matrix(0.3827 -0.9239 0.9239 0.3827 -29.1972 76.0023)" cx="42.3" cy="59.8" rx="5.8" ry="5.8"/>
		</g>
	</g>
</g>
<g id="Layer_3">
</g>
<g id="Layer_2" class="st0">
</g>
</svg>
